Project 1: Exploratory Data Analysis
…
Before joining my two datasets, I made a few conversions. In data2, I adjusted age and converted weight and height into BMI. Next, I adjusted column names and certain data to match with one another in both datasets. Before joining, I dropped columns providing information that I was not interested in for this project. Full_join was finally used to join both data1 and data2.

3. Wrangling

full %>% summarize(mean_age = mean(age, na.rm = T))

## # A tibble: 1 x 1
##   mean_age
##      <dbl>
## 1     53.8

full %>% group_by(age) %>% summarize(mean_BMI = mean(BMI, na.rm = T), 
    sd_BMI = sd(BMI, na.rm = T))

## # A tibble: 40 x 3
##      age mean_BMI sd_BMI
##    <dbl>    <dbl>  <dbl>
##  1    30     23.9   4.48
##  2    32     29.8  NA   
##  3    33     23.4   2.72
##  4    34     23.4   2.39
##  5    35     23.9   3.41
##  6    36     25.2   3.79
##  7    37     25.3   4.60
##  8    38     25.2   3.53
##  9    39     24.9   3.67
## 10    40     26.4   6.45
## # … with 30 more rows
…
full %>% summarize_at(c("age", "diaBP", "sysBP"), mean, na.rm = T)

## # A tibble: 1 x 3
##     age diaBP sysBP
##   <dbl> <dbl> <dbl>
## 1  53.8  95.8  129.

full %>% select(-diabetes, -heartRate, -glucose, -totChol) %>% 
    group_by(age) %>% summarize_if(is.numeric, mean, na.rm = T)

## # A tibble: 40 x 4
##      age diaBP   BMI sysBP
##    <dbl> <dbl> <dbl> <dbl>
##  1    30  72.5  23.9  112.
##  2    32  70    29.8  111 
##  3    33  78.4  23.4  124.
##  4    34  72.3  23.4  112.
##  5    35  75.6  23.9  118.
##  6    36  77.5  25.2  120.
##  7    37  77.4  25.3  119.
##  8    38  78.2  25.2  120.
##  9    39  79.5  24.9  122.
## 10    40  89.2  26.4  120.
## # … with 30 more rows

full %>% filter(age == 30) %>% summarize_if(is.numeric, mean, 
    na.rm = T)

## # A tibble: 1 x 7
##     age diabetes diaBP   BMI heartRate glucose sysBP
##   <dbl>    <dbl> <dbl> <dbl>     <dbl>   <dbl> <dbl>
## 1    30      NaN  72.5  23.9       NaN     NaN  112.

full %>% mutate(relative_age = case_when(age > 54 ~ "older", 
    age == 54 ~ "mean_age", age < 54 ~ "younger"))

## # A tibble: 74,240 x 11
##    gender   age currentSmoker diabetes diaBP   BMI heartRate glucose totChol
##    <chr>  <dbl> <chr>            <dbl> <dbl> <dbl>     <dbl>   <dbl> <chr>  
##  1 male      39 nonsmoker            0    70  27.0        80      77 195    
##  2 female    46 nonsmoker            0    81  28.7        95      76 250    
##  3 male      48 smoker               0    80  25.3        75      70 245    
##  4 female    61 smoker               0    95  28.6        65     103 225    
##  5 female    46 smoker               0    84  23.1        85      85 285    
##  6 female    43 nonsmoker            0   110  30.3        77      99 228    
##  7 female    63 nonsmoker            0    71  33.1        60      85 205    
##  8 female    45 smoker               0    71  21.7        79      78 313    
##  9 male      52 nonsmoker            0    89  26.4        76      79 260    
## 10 male      43 smoker               0   107  23.6        93      88 225    
## # … with 74,230 more rows, and 2 more variables: sysBP <dbl>,
## #   relative_age <chr>

full %>% group_by(age) %>% summarize(mean_sysBP = mean(sysBP, 
    na.rm = T), sd_sysBP = sd(sysBP, na.rm = T), n = n(), se_sysBP = (sd_sysBP/sqrt(n)))

## # A tibble: 40 x 5
##      age mean_sysBP sd_sysBP     n se_sysBP
##    <dbl>      <dbl>    <dbl> <int>    <dbl>
##  1    30       112.     9.57     4    4.79 
##  2    32       111     NA        1   NA    
##  3    33       124.    14.1      5    6.31 
##  4    34       112.     9.40    18    2.21 
##  5    35       118.    17.4     42    2.69 
##  6    36       120.    13.9     84    1.52 
##  7    37       119.    13.4     92    1.40 
##  8    38       120.    13.5    144    1.13 
##  9    39       122.    16.3    170    1.25 
## 10    40       120.    24.5   1777    0.582
## # … with 30 more rows

full %>% arrange(BMI)

## # A tibble: 74,240 x 10
##    gender   age currentSmoker diabetes diaBP   BMI heartRate glucose totChol
##    <chr>  <dbl> <chr>            <dbl> <dbl> <dbl>     <dbl>   <dbl> <chr>  
##  1 male      60 nonsmoker           NA    90  3.47        NA      NA <NA>   
##  2 male      52 nonsmoker           NA  1100  3.67        NA      NA <NA>   
##  3 male      57 smoker              NA    80  7.02        NA      NA <NA>   
##  4 female    61 nonsmoker           NA    80  8.00        NA      NA <NA>   
##  5 female    65 nonsmoker           NA    80  9.33        NA      NA <NA>   
##  6 female    52 nonsmoker           NA    70  9.92        NA      NA <NA>   
##  7 male      48 nonsmoker           NA    90 10.7         NA      NA <NA>   
##  8 female    50 nonsmoker           NA    80 11.7         NA      NA <NA>   
##  9 female    63 nonsmoker           NA    90 12.3         NA      NA <NA>   
## 10 female    61 nonsmoker           NA    70 12.9         NA      NA <NA>   
## # … with 74,230 more rows, and 1 more variable: sysBP <dbl>
…
